{
 "actions": [],
 "allow_rename": 1,
 "creation": "2023-10-31 17:10:18.936845",
 "doctype": "DocType",
 "editable_grid": 1,
 "engine": "InnoDB",
 "field_order": [
  "scrap_item_code",
  "scrap_item_name",
  "scrap_item_group",
  "scrap_qty",
  "remarks"
 ],
 "fields": [
  {
   "fieldname": "scrap_item_code",
   "fieldtype": "Link",
   "in_list_view": 1,
   "label": "Scrap Item Code",
   "options": "Item",
   "reqd": 1
  },
  {
   "fetch_from": "scrap_item_code.item_name",
   "fieldname": "scrap_item_name",
   "fieldtype": "Data",
   "in_list_view": 1,
   "label": "Scrap Item Name",
   "read_only": 1
  },
  {
   "fetch_from": "scrap_item_code.item_group",
   "fieldname": "scrap_item_group",
   "fieldtype": "Data",
   "in_list_view": 1,
   "label": "Scrap Item Group",
   "read_only": 1
  },
  {
   "fieldname": "scrap_qty",
   "fieldtype": "Data",
   "in_list_view": 1,
   "label": "Scrap Qty",
   "reqd": 1
  },
  {
   "fieldname": "remarks",
   "fieldtype": "Data",
   "in_list_view": 1,
   "label": "Remarks"
  }
 ],
 "index_web_pages_for_search": 1,
 "istable": 1,
 "links": [],
 "modified": "2023-12-24 14:14:10.948382",
 "modified_by": "Administrator",
 "module": "Excel Manufacturing",
 "name": "EISL Scrap Item Table",
 "owner": "Administrator",
 "permissions": [],
 "sort_field": "modified",
 "sort_order": "DESC",
 "states": []
}