{
 "actions": [],
 "allow_import": 1,
 "allow_rename": 1,
 "autoname": "field:eisl_long_term_loans_no",
 "creation": "2023-12-10 13:56:21.022179",
 "default_view": "List",
 "doctype": "DocType",
 "editable_grid": 1,
 "engine": "InnoDB",
 "field_order": [
  "eisl_long_term_loans_no",
  "date"
 ],
 "fields": [
  {
   "description": "Please make sure to input correct data here before using this dimension in any transaction.",
   "fieldname": "eisl_long_term_loans_no",
   "fieldtype": "Data",
   "in_list_view": 1,
   "label": "EISL Long Term Loans No",
   "reqd": 1,
   "unique": 1
  },
  {
   "fieldname": "date",
   "fieldtype": "Date",
   "label": "Date"
  }
 ],
 "index_web_pages_for_search": 1,
 "links": [],
 "modified": "2023-12-10 13:56:21.022179",
 "modified_by": "Administrator",
 "module": "Excel Manufacturing",
 "name": "EISL Long Term Loans",
 "naming_rule": "By fieldname",
 "owner": "Administrator",
 "permissions": [
  {
   "create": 1,
   "delete": 1,
   "email": 1,
   "export": 1,
   "print": 1,
   "read": 1,
   "report": 1,
   "role": "System Manager",
   "share": 1,
   "write": 1
  }
 ],
 "quick_entry": 1,
 "sort_field": "modified",
 "sort_order": "DESC",
 "states": [],
 "title_field": "eisl_long_term_loans_no",
 "track_changes": 1
}